<?xml version="1.0" encoding="UTF-8" standalone="no"?>
<svg
   xmlns:dc="http://purl.org/dc/elements/1.1/"
   xmlns:cc="http://creativecommons.org/ns#"
   xmlns:rdf="http://www.w3.org/1999/02/22-rdf-syntax-ns#"
   xmlns:svg="http://www.w3.org/2000/svg"
   xmlns="http://www.w3.org/2000/svg"
   xmlns:sodipodi="http://sodipodi.sourceforge.net/DTD/sodipodi-0.dtd"
   xmlns:inkscape="http://www.inkscape.org/namespaces/inkscape"
   id="ICON-MENU-BLUE"
   width="20"
   height="14"
   viewBox="0 0 20 14"
   version="1.1"
   sodipodi:docname="ICON-MENU-BLACK.svg"
   inkscape:version="0.92.4 (5da689c313, 2019-01-14)">
  <metadata
     id="metadata11">
    <rdf:RDF>
      <cc:Work
         rdf:about="">
        <dc:format>image/svg+xml</dc:format>
        <dc:type
           rdf:resource="http://purl.org/dc/dcmitype/StillImage" />
      </cc:Work>
    </rdf:RDF>
  </metadata>
  <defs
     id="defs9" />
  <sodipodi:namedview
     pagecolor="#ffffff"
     bordercolor="#666666"
     borderopacity="1"
     objecttolerance="10"
     gridtolerance="10"
     guidetolerance="10"
     inkscape:pageopacity="0"
     inkscape:pageshadow="2"
     inkscape:window-width="1920"
     inkscape:window-height="1001"
     id="namedview7"
     showgrid="false"
     inkscape:zoom="16.857143"
     inkscape:cx="10"
     inkscape:cy="7"
     inkscape:window-x="-9"
     inkscape:window-y="-9"
     inkscape:window-maximized="1"
     inkscape:current-layer="Group_19" />
  <g
     id="Group_19"
     data-name="Group 19"
     transform="translate(-679 -414)">
    <rect
       id="Rectangle_29"
       data-name="Rectangle 29"
       width="20"
       height="2"
       transform="translate(679 420)"
       fill="#003865"
       style="fill:#000000;fill-opacity:1" />
    <rect
       id="Rectangle_30"
       data-name="Rectangle 30"
       width="12"
       height="2"
       transform="translate(679 426)"
       fill="#003865"
       style="fill:#000000;fill-opacity:1" />
    <rect
       id="Rectangle_31"
       data-name="Rectangle 31"
       width="16"
       height="2"
       transform="translate(679 414)"
       fill="#003865"
       style="fill:#000000;fill-opacity:1" />
  </g>
</svg>
