<svg id="Pragma-Logo-Stack-WHITE" xmlns="http://www.w3.org/2000/svg" width="200.564" height="50.013" viewBox="0 0 200.564 50.013">
  <g id="Group_9" data-name="Group 9" transform="translate(69.588 8.583)">
    <g id="Group_8" data-name="Group 8">
      <path id="Path_18" data-name="Path 18" d="M292.549,156.857h6.5a8.732,8.732,0,0,1,2.461.308,4.712,4.712,0,0,1,1.728.887,3.557,3.557,0,0,1,1.021,1.416,5,5,0,0,1,.335,1.885,4.9,4.9,0,0,1-.331,1.822,3.8,3.8,0,0,1-1.014,1.448,4.785,4.785,0,0,1-1.723.954,7.882,7.882,0,0,1-2.461.343l-4.015-.008v3.274h-2.5Zm6.563,6.894a4.089,4.089,0,0,0,1.242-.17,2.492,2.492,0,0,0,.892-.481,1.934,1.934,0,0,0,.536-.757,2.659,2.659,0,0,0,.177-.99,2.123,2.123,0,0,0-.714-1.708,3.209,3.209,0,0,0-2.134-.611H295.05v4.717Z" transform="translate(-291.792 -156.707)" fill="#fff"/>
      <path id="Path_19" data-name="Path 19" d="M336,156.857h6.271a9.078,9.078,0,0,1,2.461.3,4.751,4.751,0,0,1,1.728.856,3.449,3.449,0,0,1,1.021,1.365,4.677,4.677,0,0,1,.335,1.822,5.045,5.045,0,0,1-.166,1.305,3.824,3.824,0,0,1-1.373,2.067,4.651,4.651,0,0,1-1.223.674l2.682,3.944h-3.061l-2.319-3.5h-.071l-3.786-.008v3.51H336Zm6.334,6.658a4.192,4.192,0,0,0,1.243-.166,2.538,2.538,0,0,0,.891-.465,1.846,1.846,0,0,0,.536-.729,2.49,2.49,0,0,0,.178-.958,1.922,1.922,0,0,0-.71-1.6,3.4,3.4,0,0,0-2.138-.564H338.5v4.48Z" transform="translate(-318.854 -156.707)" fill="#fff"/>
      <path id="Path_20" data-name="Path 20" d="M381.044,156.857h2.65l5.963,12.329h-2.627l-.986-2.075h-7.2l-.955,2.075h-2.634Zm4.015,8.2-2.666-5.6-2.6,5.6Z" transform="translate(-343.301 -156.707)" fill="#fff"/>
      <path id="Path_21" data-name="Path 21" d="M420.566,162.66a6.043,6.043,0,0,1,.489-2.433,5.535,5.535,0,0,1,1.428-1.968,6.806,6.806,0,0,1,2.307-1.317,9.422,9.422,0,0,1,3.136-.481,12.418,12.418,0,0,1,1.282.067,10.761,10.761,0,0,1,1.27.209,10.086,10.086,0,0,1,1.222.359,7.852,7.852,0,0,1,1.132.517L431.68,159.5a4.892,4.892,0,0,0-.734-.343,6.977,6.977,0,0,0-.88-.26,8.6,8.6,0,0,0-.97-.161,9.26,9.26,0,0,0-1.006-.055,6.765,6.765,0,0,0-2.083.3,4.508,4.508,0,0,0-1.546.828,3.519,3.519,0,0,0-.962,1.274,3.933,3.933,0,0,0-.332,1.625,4,4,0,0,0,.347,1.68,3.781,3.781,0,0,0,.986,1.317,4.631,4.631,0,0,0,1.546.864,6.744,6.744,0,0,0,3.66.111,4.353,4.353,0,0,0,1.294-.572,3.241,3.241,0,0,0,.9-.9,3.059,3.059,0,0,0,.458-1.179h-4.307v-2.059h6.555v.008l.008-.008a6.465,6.465,0,0,1,.122,1.842,5.536,5.536,0,0,1-.41,1.688,5.388,5.388,0,0,1-.919,1.456,5.717,5.717,0,0,1-1.4,1.14,7.105,7.105,0,0,1-1.846.742,9.119,9.119,0,0,1-2.264.264,8.809,8.809,0,0,1-3.081-.505,6.866,6.866,0,0,1-2.307-1.38,5.925,5.925,0,0,1-1.448-2.051A6.307,6.307,0,0,1,420.566,162.66Z" transform="translate(-371.522 -156.46)" fill="#fff"/>
      <path id="Path_22" data-name="Path 22" d="M469.936,156.857h2.5l4.48,4.5,4.481-4.5h2.5v12.329h-2.5V160.32l-4.481,4.315-4.48-4.315v8.866h-2.5Z" transform="translate(-402.269 -156.707)" fill="#fff"/>
      <path id="Path_23" data-name="Path 23" d="M522.125,156.857h2.651l5.964,12.329h-2.627l-.986-2.075h-7.2l-.955,2.075h-2.634Zm4.015,8.2-2.666-5.6-2.6,5.6Z" transform="translate(-431.168 -156.707)" fill="#fff"/>
      <path id="Path_24" data-name="Path 24" d="M291.875,218.794q.672.379,1.361.682a11.046,11.046,0,0,0,1.432.513,11.426,11.426,0,0,0,1.558.319,12.94,12.94,0,0,0,1.74.111,10.46,10.46,0,0,0,1.893-.146,4.649,4.649,0,0,0,1.274-.4,1.8,1.8,0,0,0,.718-.611,1.419,1.419,0,0,0,.225-.773,1.225,1.225,0,0,0-.56-1.061,3.049,3.049,0,0,0-1.727-.39,9.289,9.289,0,0,0-1.081.067q-.568.067-1.147.146c-.387.052-.767.1-1.144.146a9.112,9.112,0,0,1-1.061.067,5.881,5.881,0,0,1-1.589-.213,4.224,4.224,0,0,1-1.349-.639,3.2,3.2,0,0,1-.935-1.065,3.089,3.089,0,0,1-.347-1.491,3.791,3.791,0,0,1,.138-1,3.344,3.344,0,0,1,.442-.951,3.908,3.908,0,0,1,.785-.844,4.737,4.737,0,0,1,1.164-.674,7.664,7.664,0,0,1,1.577-.446,11.6,11.6,0,0,1,2.039-.162,15.436,15.436,0,0,1,1.664.091q.837.09,1.629.256a15.665,15.665,0,0,1,1.526.4,12.5,12.5,0,0,1,1.365.516l-1.1,2.02a11.756,11.756,0,0,0-1.12-.422,12.944,12.944,0,0,0-1.254-.335c-.436-.095-.888-.169-1.353-.225a12.1,12.1,0,0,0-1.424-.083,8,8,0,0,0-1.7.15,3.75,3.75,0,0,0-1.061.382,1.406,1.406,0,0,0-.548.521,1.206,1.206,0,0,0-.154.572,1.063,1.063,0,0,0,.5.9,2.64,2.64,0,0,0,1.514.351,8.6,8.6,0,0,0,.943-.059c.355-.04.73-.083,1.12-.13s.793-.091,1.2-.13.8-.059,1.187-.059a6.931,6.931,0,0,1,1.929.244,4.034,4.034,0,0,1,1.408.7,2.938,2.938,0,0,1,.86,1.1,3.433,3.433,0,0,1,.292,1.44,3.646,3.646,0,0,1-.493,1.9,4.154,4.154,0,0,1-1.4,1.4,7.092,7.092,0,0,1-2.2.868,12.773,12.773,0,0,1-2.863.3,15.664,15.664,0,0,1-2.035-.13,15.117,15.117,0,0,1-1.905-.371,14.354,14.354,0,0,1-1.736-.576,12.951,12.951,0,0,1-1.526-.738Z" transform="translate(-290.542 -189.789)" fill="#fff"/>
      <path id="Path_25" data-name="Path 25" d="M337.674,216.236a6.082,6.082,0,0,1,.5-2.457,5.658,5.658,0,0,1,1.44-1.98,6.838,6.838,0,0,1,2.3-1.321,9.212,9.212,0,0,1,3.081-.481,11.781,11.781,0,0,1,2.764.3,8.743,8.743,0,0,1,2.339.927l-1.152,1.893a3.986,3.986,0,0,0-.745-.379,6.675,6.675,0,0,0-.9-.28,9.055,9.055,0,0,0-.986-.177,8.132,8.132,0,0,0-1.006-.063,7.114,7.114,0,0,0-2.138.3,4.645,4.645,0,0,0-1.582.828,3.544,3.544,0,0,0-.978,1.27,3.882,3.882,0,0,0-.335,1.621,4.027,4.027,0,0,0,.347,1.68,3.76,3.76,0,0,0,1.006,1.321,4.783,4.783,0,0,0,1.609.868,6.892,6.892,0,0,0,2.15.312,7.485,7.485,0,0,0,1.081-.079,8.57,8.57,0,0,0,1.037-.217,7.923,7.923,0,0,0,.966-.332,7.631,7.631,0,0,0,.868-.422l1.152,1.894a8.522,8.522,0,0,1-2.335,1.014,10.522,10.522,0,0,1-2.816.367,10.286,10.286,0,0,1-3.337-.493,6.9,6.9,0,0,1-2.4-1.357,5.574,5.574,0,0,1-1.447-2.035A6.518,6.518,0,0,1,337.674,216.236Z" transform="translate(-319.896 -189.802)" fill="#fff"/>
      <path id="Path_26" data-name="Path 26" d="M382.406,210.394h2.516v12.329h-2.516Z" transform="translate(-347.755 -190.05)" fill="#fff"/>
      <path id="Path_27" data-name="Path 27" d="M401.807,210.394h10.5v2.193h-8v2.461h7.083v2.059h-7.083v3.431h8.164v2.185H401.807Z" transform="translate(-359.838 -190.05)" fill="#fff"/>
      <path id="Path_28" data-name="Path 28" d="M441.683,210.394h2.5l7.683,4.023v-4.023h2.5v12.329h-2.5v-5.656l-7.683-4v9.655h-2.5Z" transform="translate(-384.673 -190.05)" fill="#fff"/>
      <path id="Path_29" data-name="Path 29" d="M491.17,212.587h-4.551v-2.193h11.6v2.193h-4.551v10.136h-2.5Z" transform="translate(-412.66 -190.05)" fill="#fff"/>
      <path id="Path_30" data-name="Path 30" d="M527.9,210.394h2.516v12.329H527.9Z" transform="translate(-438.367 -190.05)" fill="#fff"/>
      <path id="Path_31" data-name="Path 31" d="M547.3,210.394H558.33v2.193H549.8v3.227h7.241v2.059H549.8v4.851h-2.5Z" transform="translate(-450.453 -190.05)" fill="#fff"/>
      <path id="Path_32" data-name="Path 32" d="M586.382,210.394H588.9v12.329h-2.517Z" transform="translate(-474.793 -190.05)" fill="#fff"/>
      <path id="Path_33" data-name="Path 33" d="M603.8,216.236a6.082,6.082,0,0,1,.5-2.457,5.659,5.659,0,0,1,1.44-1.98,6.838,6.838,0,0,1,2.3-1.321,9.21,9.21,0,0,1,3.08-.481,11.783,11.783,0,0,1,2.765.3,8.743,8.743,0,0,1,2.339.927l-1.151,1.893a3.987,3.987,0,0,0-.746-.379,6.648,6.648,0,0,0-.9-.28,9.058,9.058,0,0,0-.986-.177,8.133,8.133,0,0,0-1.006-.063,7.114,7.114,0,0,0-2.138.3,4.644,4.644,0,0,0-1.581.828,3.543,3.543,0,0,0-.979,1.27,3.887,3.887,0,0,0-.335,1.621,4.028,4.028,0,0,0,.347,1.68,3.761,3.761,0,0,0,1.006,1.321,4.783,4.783,0,0,0,1.609.868,6.891,6.891,0,0,0,2.15.312,7.485,7.485,0,0,0,1.081-.079,8.568,8.568,0,0,0,1.037-.217,7.924,7.924,0,0,0,.966-.332,7.619,7.619,0,0,0,.868-.422l1.152,1.894a8.521,8.521,0,0,1-2.335,1.014,10.517,10.517,0,0,1-2.816.367,10.283,10.283,0,0,1-3.337-.493,6.893,6.893,0,0,1-2.4-1.357,5.574,5.574,0,0,1-1.447-2.035A6.52,6.52,0,0,1,603.8,216.236Z" transform="translate(-485.639 -189.802)" fill="#fff"/>
    </g>
  </g>
  <path id="Path_34" data-name="Path 34" d="M155.174,166.451,130.615,133.7l-24.56,32.747L119,183.717l11.61-15.48h0l11.609,15.48Zm-34.025-14.408H140.08l-4.733,6.31-4.733,6.311-4.733-6.311Zm16.343,7.026,4.733-6.311,9.466,12.621H132.758Zm-6.877-21.791,9.466,12.622H121.148ZM119,152.757l4.733,6.311,4.733,6.31H109.538Zm0,27.387-9.466-12.622h18.933Zm23.219,0-9.466-12.622H151.69Z" transform="translate(-106.055 -133.704)" fill="#fff"/>
</svg>
